{
    "key": "group_5fcde9d6137e9",
    "title": "[CPT] Historie sukcesu",
    "fields": [
        {
            "key": "field_602f98e9461bb",
            "label": "Dane",
            "name": "",
            "type": "tab",
            "instructions": "",
            "required": 0,
            "conditional_logic": 0,
            "wrapper": {
                "width": "",
                "class": "",
                "id": ""
            },
            "placement": "top",
            "endpoint": 0
        },
        {
            "key": "field_5fcde9df27537",
            "label": "Typ",
            "name": "type",
            "type": "select",
            "instructions": "",
            "required": 0,
            "conditional_logic": 0,
            "wrapper": {
                "width": "",
                "class": "",
                "id": ""
            },
            "choices": [
                "Odszkodowanie za wypadek",
                "Odszkodowanie za wypadek w rolnictwie",
                "Odszkodowanie za uszczerbek na zdrowiu",
                "Odszkodowanie za śmierć bliskiej osoby",
                "Odszkodowanie za śmierć rodzica",
                "Odszkodowanie za śmierć dziecka"
            ],
            "default_value": false,
            "allow_null": 0,
            "multiple": 0,
            "ui": 1,
            "ajax": 0,
            "return_format": "array",
            "placeholder": ""
        },
        {
            "key": "field_5fcdea5827538",
            "label": "Kwota zaniżona",
            "name": "min",
            "type": "number",
            "instructions": "",
            "required": 0,
            "conditional_logic": 0,
            "wrapper": {
                "width": "",
                "class": "",
                "id": ""
            },
            "default_value": "",
            "placeholder": "",
            "prepend": "",
            "append": "zł",
            "min": "",
            "max": "",
            "step": ""
        },
        {
            "key": "field_5fcdea6c27539",
            "label": "Kwota wywalczona",
            "name": "max",
            "type": "number",
            "instructions": "",
            "required": 0,
            "conditional_logic": 0,
            "wrapper": {
                "width": "",
                "class": "",
                "id": ""
            },
            "default_value": "",
            "placeholder": "",
            "prepend": "",
            "append": "zł",
            "min": "",
            "max": "",
            "step": ""
        },
        {
            "key": "field_5fcded6f1f6b0",
            "label": "Krótki opis",
            "name": "description",
            "type": "wysiwyg",
            "instructions": "",
            "required": 0,
            "conditional_logic": 0,
            "wrapper": {
                "width": "",
                "class": "",
                "id": ""
            },
            "default_value": "",
            "tabs": "all",
            "toolbar": "full",
            "media_upload": 0,
            "delay": 0
        },
        {
            "key": "field_602f991ca253a",
            "label": "Dodatkowe sekcje",
            "name": "",
            "type": "tab",
            "instructions": "",
            "required": 0,
            "conditional_logic": 0,
            "wrapper": {
                "width": "",
                "class": "",
                "id": ""
            },
            "placement": "top",
            "endpoint": 0
        },
        {
            "key": "field_602f992ca253b",
            "label": "",
            "name": "",
            "type": "clone",
            "instructions": "",
            "required": 0,
            "conditional_logic": 0,
            "wrapper": {
                "width": "",
                "class": "",
                "id": ""
            },
            "clone": [
                "group_5fc4a13fcd722"
            ],
            "display": "seamless",
            "layout": "block",
            "prefix_label": 0,
            "prefix_name": 0
        }
    ],
    "location": [
        [
            {
                "param": "post_type",
                "operator": "==",
                "value": "success_story"
            }
        ]
    ],
    "menu_order": 0,
    "position": "normal",
    "style": "default",
    "label_placement": "top",
    "instruction_placement": "label",
    "hide_on_screen": "",
    "active": true,
    "description": "",
    "modified": 1613732624
}